^C:\USERS\WORKER\SOURCE\REPOS\CONSOLEAPPLICATION\CONSOLEAPPLICATION.CPP
/c /ZI /JMC /nologo /W3 /WX- /diagnostics:column /sdl /Od /Oy- /D WIN32 /D _DEBUG /D _CONSOLE /D _UNICODE /D UNICODE /Gm- /EHsc /RTC1 /MDd /GS /fp:precise /permissive- /Zc:wchar_t /Zc:forScope /Zc:inline /Fo"DEBUG\\" /Fd"DEBUG\VC142.PDB" /Gd /TP /analyze- /FC C:\USERS\WORKER\SOURCE\REPOS\CONSOLEAPPLICATION\CONSOLEAPPLICATION.CPP
^C:\USERS\WORKER\SOURCE\REPOS\CONSOLEAPPLICATION\CLIST.CPP
/c /ZI /JMC /nologo /W3 /WX- /diagnostics:column /sdl /Od /Oy- /D WIN32 /D _DEBUG /D _CONSOLE /D _UNICODE /D UNICODE /Gm- /EHsc /RTC1 /MDd /GS /fp:precise /permissive- /Zc:wchar_t /Zc:forScope /Zc:inline /Fo"DEBUG\\" /Fd"DEBUG\VC142.PDB" /Gd /TP /analyze- /FC C:\USERS\WORKER\SOURCE\REPOS\CONSOLEAPPLICATION\CLIST.CPP
^D:\WORKER\DESKTOP\УЧОБА\АЛГОРИТМИ І СТРУКТУРИ\CONSOLEAPPLICATION\CONSOLEAPPLICATION.CPP
/c /ZI /JMC /nologo /W3 /WX- /diagnostics:column /sdl /Od /Oy- /D WIN32 /D _DEBUG /D _CONSOLE /D _UNICODE /D UNICODE /Gm- /EHsc /RTC1 /MDd /GS /fp:precise /permissive- /Zc:wchar_t /Zc:forScope /Zc:inline /Fo"DEBUG\\" /Fd"DEBUG\VC142.PDB" /Gd /TP /analyze- /FC D:\WORKER\DESKTOP\УЧОБА\АЛГОРИТМИ І СТРУКТУРИ\CONSOLEAPPLICATION\CONSOLEAPPLICATION.CPP
^D:\WORKER\DESKTOP\УЧОБА\АЛГОРИТМИ І СТРУКТУРИ\CONSOLEAPPLICATION\CLIST.CPP
/c /ZI /JMC /nologo /W3 /WX- /diagnostics:column /sdl /Od /Oy- /D WIN32 /D _DEBUG /D _CONSOLE /D _UNICODE /D UNICODE /Gm- /EHsc /RTC1 /MDd /GS /fp:precise /permissive- /Zc:wchar_t /Zc:forScope /Zc:inline /Fo"DEBUG\\" /Fd"DEBUG\VC142.PDB" /Gd /TP /analyze- /FC D:\WORKER\DESKTOP\УЧОБА\АЛГОРИТМИ І СТРУКТУРИ\CONSOLEAPPLICATION\CLIST.CPP
